WARNING: File "tchecker/monitor_event_no_edge.cif": Semantic warning at line 17, column 12: Automaton "a" monitors event "e1", but the event is not used on any of the edges of the automaton.
WARNING: File "tchecker/monitor_event_no_edge.cif": Semantic warning at line 17, column 16: Automaton "a" monitors event "e2", but the event is not used on any of the edges of the automaton.
WARNING: File "tchecker/monitor_event_no_edge.cif": Semantic warning at line 25, column 12: Automaton "b" monitors event "e3", but the event is not used on any of the edges of the automaton.
