ERROR: Simulation resulted in a runtime error, for state: time=0.0.
CAUSE: Evaluation of initialization predicate "f()" of the top level scope of the specification failed.
CAUSE: Evaluation of function "f" failed.
CAUSE: Failed to load external user-defined function "f".
CAUSE: Method "public static void TestClass1.void_method()" has a "void" return type, while a "java.lang.Boolean" type is expected.
